{
  "id": "business-card",
  "label": "business-card",
  "repeatable": true,
  "json": {
    "Main": {
      "uid": {
        "type": "UID",
        "config": {
          "label": "card_url"
        }
      },
      "body": {
        "type": "Slices",
        "fieldset": "Slice zone",
        "config": {
          "labels": {},
          "choices": {
            "seo_data": {
              "type": "SharedSlice"
            }
          }
        }
      }
    }
  },
  "status": true
}