{
  "id": "add_info_links",
  "type": "SharedSlice",
  "name": "AddInfoLinks",
  "description": "AddInfoLinks",
  "variations": [
    {
      "id": "default-slice",
      "name": "Default slice",
      "docURL": "...",
      "version": "sktwi1xtmkfgx8626",
      "description": "AddInfoLinks",
      "primary": {
        "blockTitle": {
          "type": "StructuredText",
          "config": {
            "label": "",
            "id": "blockTitle",
            "placeholder": "",
            "allowTargetBlank": true,
            "single": "paragraph,preformatted,heading1,heading2,heading3,heading4,heading5,heading6,strong,em,hyperlink,image,embed,list-item,o-list-item,rtl"
          }
        },
        "blockAnchor": {
          "type": "StructuredText",
          "config": {
            "label": "",
            "id": "blockAnchor",
            "placeholder": "",
            "allowTargetBlank": true,
            "single": "paragraph,preformatted,heading1,heading2,heading3,heading4,heading5,heading6,strong,em,hyperlink,image,embed,list-item,o-list-item,rtl"
          }
        }
      },
      "items": {
        "linkTitle": {
          "config": {
            "label": "anchor_link_label",
            "placeholder": "",
            "allowTargetBlank": true,
            "single": "paragraph,preformatted,heading1,heading2,heading3,heading4,heading5,heading6,strong,em,hyperlink,image,embed,list-item,o-list-item,rtl"
          },
          "type": "StructuredText"
        }
      }
    },
    {
      "id": "withGrayBlock",
      "name": "WithGrayBlock",
      "docURL": "...",
      "version": "sktwi1xtmkfgx8626",
      "description": "AddInfoLinks",
      "primary": {
        "blockTitle": {
          "type": "StructuredText",
          "config": {
            "single": "paragraph,preformatted,heading1,heading2,heading3,heading4,heading5,heading6,strong,em,hyperlink,image,embed,list-item,o-list-item,rtl",
            "allowTargetBlank": true,
            "placeholder": "",
            "label": "blockTitle"
          }
        },
        "blockAnchor": {
          "type": "StructuredText",
          "config": {
            "single": "paragraph,preformatted,heading1,heading2,heading3,heading4,heading5,heading6,strong,em,hyperlink,image,embed,list-item,o-list-item,rtl",
            "allowTargetBlank": true,
            "placeholder": "",
            "label": "blockAnchor"
          }
        },
        "GrayBlockTitle": {
          "config": {
            "label": "GrayBlockTitle",
            "placeholder": "",
            "allowTargetBlank": true,
            "single": "paragraph,preformatted,heading1,heading2,heading3,heading4,heading5,heading6,strong,em,hyperlink,image,embed,list-item,o-list-item,rtl"
          },
          "type": "StructuredText"
        },
        "GrayBlockLink1": {
          "config": {
            "label": "GrayBlockLink1",
            "placeholder": "",
            "allowTargetBlank": true,
            "single": "paragraph,preformatted,heading1,heading2,heading3,heading4,heading5,heading6,strong,em,hyperlink,image,embed,list-item,o-list-item,rtl"
          },
          "type": "StructuredText"
        },
        "GrayBlockLink2": {
          "config": {
            "label": "GrayBlockLink2",
            "placeholder": "",
            "allowTargetBlank": true,
            "single": "paragraph,preformatted,heading1,heading2,heading3,heading4,heading5,heading6,strong,em,hyperlink,image,embed,list-item,o-list-item,rtl"
          },
          "type": "StructuredText"
        }
      },
      "items": {
        "linkTitle": {
          "config": {
            "label": "anchor_link_label",
            "placeholder": "",
            "allowTargetBlank": true,
            "single": "paragraph,preformatted,heading1,heading2,heading3,heading4,heading5,heading6,strong,em,hyperlink,image,embed,list-item,o-list-item,rtl"
          },
          "type": "StructuredText"
        }
      }
    }
  ]
}