<svg width="1168" height="432" viewBox="0 0 1168 432" fill="none" xmlns="http://www.w3.org/2000/svg">
<g clip-path="url(#clip0)">
<rect width="1168" height="432" rx="4" fill="white"/>
<path d="M834.146 216.301L1035.6 0H916.59H865.514L664 216.301L865.514 432.666H1035.6L834.146 216.301Z" fill="#003361"/>
<path d="M1061.38 405.035L1237.05 216.302L1061.38 27.6314L976.387 118.847L1067.13 216.302L976.387 313.819L1061.38 405.035Z" fill="#003361"/>
</g>
<defs>
<clipPath id="clip0">
<rect width="1168" height="432" rx="4" fill="white"/>
</clipPath>
</defs>
</svg>
