{
  "id": "deposit-guarantee-fund",
  "label": "deposit-guarantee-fund",
  "repeatable": false,
  "json": {
    "Main": {
      "body": {
        "type": "Slices",
        "fieldset": "Slice zone",
        "config": {
          "labels": {},
          "choices": {
            "seo_data": {
              "type": "SharedSlice"
            }
          }
        }
      }
    }
  },
  "status": true
}