[
  {
    "id": "default-slice",
    "name": "Default slice",
    "docURL": "...",
    "version": "sktwi1xtmkfgx8626",
    "description": "MainRowLinks",
    "primary": {
      "blockTitle": [
        {
          "type": "paragraph",
          "text": "Cillum eiusmod sunt consectetur nostrud adipisicing nulla labore.",
          "spans": []
        }
      ]
    },
    "items": [
      {
        "anchorLinkLabel": [
          {
            "type": "paragraph",
            "text": "Culpa Lorem exercitation consequat dolor do dolore.",
            "spans": []
          }
        ],
        "anchorLink": [
          {
            "type": "paragraph",
            "text": "Ipsum voluptate consectetur est minim in esse in enim excepteur.",
            "spans": []
          }
        ]
      },
      {
        "anchorLinkLabel": [
          {
            "type": "paragraph",
            "text": "Cillum incididunt incididunt eu consectetur mollit ullamco ullamco cupidatat veniam sit enim esse consequat commodo dolor. Consectetur reprehenderit ullamco ullamco veniam ad magna aliquip culpa et nulla irure minim sunt. Dolore cupidatat mollit dolor.",
            "spans": []
          }
        ],
        "anchorLink": [
          {
            "type": "paragraph",
            "text": "Anim consequat quis aute nisi non ut laborum adipisicing sunt proident irure enim excepteur. Aute laborum et tempor.",
            "spans": []
          }
        ]
      }
    ],
    "slice_type": "main_row_links"
  }
]