{
  "id": "seo_data",
  "type": "SharedSlice",
  "name": "SeoData",
  "description": "SeoData",
  "variations": [
    {
      "id": "default-slice",
      "name": "Default slice",
      "docURL": "...",
      "version": "sktwi1xtmkfgx8626",
      "description": "SeoData",
      "primary": {
        "title": {
          "type": "StructuredText",
          "config": {
            "single": "heading1",
            "label": "Title",
            "placeholder": "This is where it all begins..."
          }
        },
        "description": {
          "config": {
            "label": "Description",
            "placeholder": "A nice description of your product",
            "allowTargetBlank": true,
            "single": "heading4"
          },
          "type": "StructuredText"
        }
      },
      "items": {}
    }
  ]
}