[
  {
    "id": "default-slice",
    "name": "Default slice",
    "docURL": "...",
    "version": "sktwi1xtmkfgx8626",
    "description": "TabDoc",
    "primary": {
      "blockTitle": [
        {
          "type": "paragraph",
          "text": "Elit exercitation dolor consectetur sunt.",
          "spans": []
        }
      ],
      "anchor": [
        {
          "type": "paragraph",
          "text": "Officia labore ut sit duis ea eu aliqua pariatur voluptate laborum reprehenderit amet occaecat consectetur. Pariatur commodo aliquip officia consectetur ullamco.",
          "spans": []
        }
      ]
    },
    "items": [
      {
        "tabTitle": [
          {
            "type": "paragraph",
            "text": "Aliquip occaecat irure consectetur.",
            "spans": []
          }
        ],
        "tabContent": [
          {
            "type": "paragraph",
            "text": "Lorem enim duis et qui dolor elit velit sit veniam fugiat cupidatat aliqua.",
            "spans": []
          }
        ]
      },
      {
        "tabTitle": [
          {
            "type": "paragraph",
            "text": "Occaecat dolore ipsum irure non nostrud dolor magna labore. Ad ullamco qui elit ullamco deserunt cillum.",
            "spans": []
          }
        ],
        "tabContent": [
          {
            "type": "paragraph",
            "text": "Consectetur laboris aute dolor et labore dolore incididunt adipisicing quis culpa laboris minim do ad adipisicing.",
            "spans": []
          }
        ]
      },
      {
        "tabTitle": [
          {
            "type": "paragraph",
            "text": "Officia ullamco velit minim tempor qui ullamco ex quis cillum non voluptate pariatur. Aliquip deserunt officia eiusmod sint officia cillum eiusmod ea excepteur mollit Lorem consectetur ipsum ullamco culpa.",
            "spans": []
          }
        ],
        "tabContent": [
          {
            "type": "paragraph",
            "text": "Voluptate officia nostrud id aute occaecat duis laboris est proident et eu minim incididunt pariatur. Id irure duis duis excepteur officia.",
            "spans": []
          }
        ]
      }
    ],
    "slice_type": "tab_doc"
  }
]